<?xml version="1.0" encoding="iso-8859-1"?>
<!-- Generator: Adobe Illustrator 21.0.0, SVG Export Plug-In . SVG Version: 6.00 Build 0)  -->
<svg xmlns="http://www.w3.org/2000/svg" xmlns:xlink="http://www.w3.org/1999/xlink" version="1.1" id="Capa_1" x="0px" y="0px" viewBox="0 0 512 512" style="enable-background:new 0 0 512 512;" xml:space="preserve" width="24" height="24">
<g>
	<path d="M241,106c0-24.813-20.187-45-45-45s-45,20.187-45,45s20.187,45,45,45S241,130.813,241,106z M196,121   c-8.271,0-15-6.729-15-15s6.729-15,15-15s15,6.729,15,15S204.271,121,196,121z"/>
	<path d="M196,151c-41.355,0-75,33.645-75,75v30c0,8.284,6.716,15,15,15h120c8.284,0,15-6.716,15-15v-30   C271,184.645,237.355,151,196,151z M241,241h-90v-15c0-24.813,20.187-45,45-45s45,20.187,45,45V241z"/>
	<path d="M256,301H136c-8.284,0-15,6.716-15,15s6.716,15,15,15h120c8.284,0,15-6.716,15-15S264.284,301,256,301z"/>
	<path d="M256,361H136c-8.284,0-15,6.716-15,15s6.716,15,15,15h120c8.284,0,15-6.716,15-15S264.284,361,256,361z"/>
	<path d="M512,177.426c0-3.978-1.58-7.794-4.394-10.607l-42.427-42.426c-5.857-5.858-15.355-5.858-21.213,0L391,177.36V106   c0-4.052-1.662-7.844-4.335-10.548l-90-91c-0.01-0.01-0.021-0.018-0.03-0.027C293.892,1.665,290.111,0,286,0H76   c-8.284,0-15,6.716-15,15v46H15C6.716,61,0,67.716,0,76v421c0,8.284,6.716,15,15,15h301c8.284,0,15-6.716,15-15v-46h45   c8.284,0,15-6.716,15-15V304.639l116.606-116.606C510.42,185.22,512,181.405,512,177.426z M365.394,287.82l-4.775,4.775   l-31.82,10.607l10.606-31.82l71.743-71.743l21.213,21.214L365.394,287.82z M301,51.498L340.068,91H301V51.498z M301,482H30V91h31   v345c0,8.284,6.716,15,15,15h225V482z M91,421V30h180v76c0,8.284,6.716,15,15,15h75v86.36l-45.313,45.312   c-1.646,1.647-2.888,3.654-3.624,5.863l-21.213,63.64c-1.797,5.39-0.394,11.333,3.624,15.35c4.024,4.023,9.968,5.418,15.35,3.624   L361,324.09V421H91z M453.573,199.64l-21.213-21.214l22.213-22.213l21.214,21.213L453.573,199.64z"/>
</g>















</svg>
